16736 33760 40992 46360 0 0 0
116320 145504 38552 47580 0 0 0
165216 204896 30012 41968 0 0 0
252768 261600 46848 58804 0 0 0
309728 320352 41724 46848 0 0 0
358240 363104 42700 47336 0 0 0
371936 375648 46604 47092 0 0 0
592224 602080 44164 48312 0 0 0
623328 638560 43920 49776 0 0 0
717152 727264 44164 57096 0 0 0
754272 772448 42944 48068 0 0 0
806112 831072 30012 38308 0 0 0
851680 856416 43920 44408 0 0 0
861664 867936 49288 50020 0 0 0
896864 929248 31476 50020 0 0 0
967008 998752 31232 57828 0 0 0
1035360 1053152 31232 50020 0 0 0
1060448 1070688 47824 49776 0 0 0
1116768 1135072 39284 56120 0 0 0
1175648 1213152 35624 44164 0 0 0
