9603200 9610112 59292 64172 0 0 0
14500224 14514304 48312 51728 0 0 0
15140864 15148160 44164 61976 0 0 0
15370752 15375872 42212 44164 0 0 0
15723776 15739136 37841.796875 48095.703125 0 0 0
15813248 15820032 
16295680 16305408 40992 60512 0 0 0
16724864 16733056 43676 56608 0 0 0
17093888 17101824 52216 54168 0 0 0
17431424 17437696 40992 48312 0 0 0
17598976 17605888 41968 47580 0 0 0
